control/simulation/qsim/control.msim.vcd
$comment
	File created using the following command:
		vcd file control.msim.vcd -direction
$end
$date
	Tue Nov 30 17:33:45 2021
$end
$version
	ModelSim Version 10.4b
$end
$timescale
	1ps
$end

$scope module control_vlg_vec_tst $end
$var reg 6 ! funct [5:0] $end
$var reg 6 " opcode [5:0] $end
$var wire 1 # ALUControl [3] $end
$var wire 1 $ ALUControl [2] $end
$var wire 1 % ALUControl [1] $end
$var wire 1 & ALUControl [0] $end
$var wire 1 ' ALUsrc $end
$var wire 1 ( Beq $end
$var wire 1 ) Bne $end
$var wire 1 * Jal $end
$var wire 1 + Jr $end
$var wire 1 , Jump $end
$var wire 1 - MemRead $end
$var wire 1 . MemtoReg $end
$var wire 1 / MemWrite $end
$var wire 1 0 RegDst $end
$var wire 1 1 RegWrite $end

$scope module i1 $end
$var wire 1 2 gnd $end
$var wire 1 3 vcc $end
$var wire 1 4 unknown $end
$var tri1 1 5 devclrn $end
$var tri1 1 6 devpor $end
$var tri1 1 7 devoe $end
$var wire 1 8 ~QUARTUS_CREATED_GND~I_combout $end
$var wire 1 9 opcode[1]~input_o $end
$var wire 1 : opcode[5]~input_o $end
$var wire 1 ; opcode[4]~input_o $end
$var wire 1 < opcode[3]~input_o $end
$var wire 1 = opcode[2]~input_o $end
$var wire 1 > opcode[0]~input_o $end
$var wire 1 ? Equal0~0_combout $end
$var wire 1 @ ALUsrc~0_combout $end
$var wire 1 A Equal2~0_combout $end
$var wire 1 B Equal3~0_combout $end
$var wire 1 C funct[4]~input_o $end
$var wire 1 D funct[5]~input_o $end
$var wire 1 E funct[2]~input_o $end
$var wire 1 F funct[1]~input_o $end
$var wire 1 G funct[0]~input_o $end
$var wire 1 H funct[3]~input_o $end
$var wire 1 I Equal1~0_combout $end
$var wire 1 J Jr~0_combout $end
$var wire 1 K Equal7~0_combout $end
$var wire 1 L ALUsrc~1_combout $end
$var wire 1 M RegWrite~0_combout $end
$var wire 1 N RegWrite~1_combout $end
$var wire 1 O ALUsrc~2_combout $end
$var wire 1 P ALUControl~0_combout $end
$var wire 1 Q Mux7~0_combout $end
$var wire 1 R ALUControl~1_combout $end
$var wire 1 S ALUControl~2_combout $end
$var wire 1 T ALUControl~3_combout $end
$var wire 1 U ALUControl~4_combout $end
$var wire 1 V Mux1~0_combout $end
$var wire 1 W Mux5~0_combout $end
$var wire 1 X ALUControl~5_combout $end
$var wire 1 Y Mux0~0_combout $end
$var wire 1 Z ALUControl~6_combout $end
$var wire 1 [ ALUControl~7_combout $end
$upscope $end
$upscope $end
$enddefinitions $end
#0
$dumpvars
b100000 !
b0 "
0&
1%
0$
0#
0'
0(
0)
0*
0+
0,
0-
0.
0/
10
11
02
13
x4
15
16
17
08
09
0:
0;
0<
0=
0>
1?
0@
0A
0B
0C
1D
0E
0F
0G
0H
0I
1J
0K
0L
0M
1N
1O
0P
0Q
0R
1S
0T
1U
0V
0W
0X
0Y
0Z
0[
$end
#20000
b100001 !
1G
#40000
b100101 !
b100100 !
0G
1E
0S
0U
0%
#60000
b100 !
b1100 !
b1000 !
0E
1H
0D
1Y
1I
0J
0N
01
1+
#80000
b1010 !
b1011 !
b101011 !
b100011 !
b100111 !
1G
1F
1E
0H
1D
0I
1V
1[
1#
1J
1X
1N
11
1$
0+
#100000
b100101 !
0F
0Y
0V
1P
1R
0X
0[
0#
0$
1&
#120000
b100100 !
b101100 !
b101000 !
b101010 !
0G
1F
0E
1H
1V
1S
1U
1X
1$
1%
#140000
b1010 !
b10 !
b0 !
0F
0H
0D
1Y
0S
0P
0V
0X
0$
0R
0U
1[
1#
0%
0&
#160000
b10 !
1F
1V
1P
1R
1&
#180000
b110 !
b100 !
0F
1E
0V
1S
0P
0R
1U
1%
0&
#200000
b110 !
1F
1P
1R
1&
#220000
b100110 !
b100010 !
0E
1D
0Y
0P
1V
1X
0R
0[
0#
0&
1$
#240000
b100011 !
1G
#260000
b100000 "
b110000 "
b111000 "
b111100 "
b111110 "
b111111 "
b110011 !
b111011 !
b111111 !
1E
1H
1C
1>
19
1=
1<
1;
1:
0O
1W
1Q
0V
0S
1Y
0?
0U
0X
0$
0%
00
0N
01
#280000
b111101 !
b11101 !
b11100 !
b11111 "
b1111 "
b111 "
b11 "
b10 "
b1100 !
b100 !
b0 !
0>
0=
0<
0;
0:
0G
0F
0E
0H
0C
0D
1O
0W
0Q
1A
1,
#300000
b11 "
1>
1T
1M
1B
0A
0,
1*
1N
1U
1%
11
#320000
b10 !
b100010 !
b100011 !
b100011 "
b110011 "
b111011 "
b111111 "
b110011 !
b111011 !
b111111 !
1=
1<
1;
1:
1G
1F
1E
1H
1C
1D
0T
0O
0M
1W
1Q
0U
0B
0*
0%
0N
01
#340000
b111101 "
b111100 "
b111101 !
b11101 !
b11100 !
b11100 "
b1100 "
b1000 "
b1100 !
b100 !
b0 !
0G
0F
0E
0H
0C
0D
0>
09
0=
0;
0:
1T
1O
1M
0W
0Q
1@
1'
1N
1U
1%
11
#360000
b1001 "
1>
#380000
b1101 "
b1100 "
0>
1=
0T
0M
0@
0'
0N
0U
0%
01
#400000
b100 "
0<
1W
1T
1U
1X
1$
1%
#420000
b101 "
1>
#440000
b111 "
b1111 "
19
1<
1Z
0T
1Q
1M
1@
1'
1N
1R
0U
1[
1#
0%
1&
11
#460000
b101111 "
b101011 "
b100011 "
0=
0<
1:
0Z
1T
0O
0W
0Q
1K
1-
1.
0R
0X
1U
0[
0#
1%
0$
0&
#480000
b100001 "
b1 "
b101 "
b1101 "
09
1=
1<
0:
0T
1O
1Q
0K
0-
0.
1R
0U
0%
1&
#500000
b1100 "
b1110 "
b1010 "
0>
19
0=
1W
1T
1U
1X
1$
1%
#520000
b101010 "
b101011 "
1>
1:
0O
0M
0W
0Q
1L
1/
0R
0X
0N
01
0$
0&
#540000
b10 !
b100010 !
b100011 !
b111011 "
b110011 !
b111011 !
b111111 !
b111111 "
1=
1;
1G
1F
1E
1H
1C
1D
1W
0T
1Q
0U
0L
0@
0'
0/
0%
#560000
b110111 "
b110101 "
b10101 "
b10100 "
b111101 !
b11101 !
b11100 !
b100 "
b1100 !
b100 !
b0 !
b0 "
0G
0F
0E
0H
0C
0D
0>
09
0=
0<
0;
0:
1O
0W
0Q
1?
10
1[
1N
11
1#
#570000
b1000 "
b1010 "
b101010 "
b101011 "
b10 !
b100010 !
b100011 !
b111011 "
b110011 !
b111011 !
b111111 !
b111111 "
1G
1F
1E
1H
1C
1D
1>
19
1=
1<
1;
1:
0O
1W
1Q
0?
0[
0#
00
0N
01
#590000
b110111 "
b110101 "
b10101 "
b10100 "
b111101 !
b11101 !
b11100 !
b100 "
b1100 !
b100 !
b0 !
b0 "
0G
0F
0E
0H
0C
0D
0>
09
0=
0<
0;
0:
1O
0W
0Q
1?
10
1[
1N
11
1#
#840000
b100000 !
1D
0Y
1S
1U
0[
0#
1%
#860000
b100001 !
1G
#880000
b100101 !
b100100 !
0G
1E
0S
0U
0%
#900000
b101100 !
b1100 !
b1000 !
0E
1H
0D
1Y
1I
0J
0N
01
1+
#920000
b0 !
0H
0I
1[
1#
1J
1N
11
0+
#940000
b100000 !
1D
0Y
1S
1U
0[
0#
1%
