sei/simulation/qsim/sei.msim.vcd
$comment
	File created using the following command:
		vcd file sei.msim.vcd -direction
$end
$date
	Tue Nov 23 20:15:51 2021
$end
$version
	ModelSim Version 10.4b
$end
$timescale
	1ps
$end

$scope module sei_vlg_vec_tst $end
$var reg 16 ! sixteen [15:0] $end
$var wire 1 " thirtytwo [31] $end
$var wire 1 # thirtytwo [30] $end
$var wire 1 $ thirtytwo [29] $end
$var wire 1 % thirtytwo [28] $end
$var wire 1 & thirtytwo [27] $end
$var wire 1 ' thirtytwo [26] $end
$var wire 1 ( thirtytwo [25] $end
$var wire 1 ) thirtytwo [24] $end
$var wire 1 * thirtytwo [23] $end
$var wire 1 + thirtytwo [22] $end
$var wire 1 , thirtytwo [21] $end
$var wire 1 - thirtytwo [20] $end
$var wire 1 . thirtytwo [19] $end
$var wire 1 / thirtytwo [18] $end
$var wire 1 0 thirtytwo [17] $end
$var wire 1 1 thirtytwo [16] $end
$var wire 1 2 thirtytwo [15] $end
$var wire 1 3 thirtytwo [14] $end
$var wire 1 4 thirtytwo [13] $end
$var wire 1 5 thirtytwo [12] $end
$var wire 1 6 thirtytwo [11] $end
$var wire 1 7 thirtytwo [10] $end
$var wire 1 8 thirtytwo [9] $end
$var wire 1 9 thirtytwo [8] $end
$var wire 1 : thirtytwo [7] $end
$var wire 1 ; thirtytwo [6] $end
$var wire 1 < thirtytwo [5] $end
$var wire 1 = thirtytwo [4] $end
$var wire 1 > thirtytwo [3] $end
$var wire 1 ? thirtytwo [2] $end
$var wire 1 @ thirtytwo [1] $end
$var wire 1 A thirtytwo [0] $end

$scope module i1 $end
$var wire 1 B gnd $end
$var wire 1 C vcc $end
$var wire 1 D unknown $end
$var tri1 1 E devclrn $end
$var tri1 1 F devpor $end
$var tri1 1 G devoe $end
$var wire 1 H ~QUARTUS_CREATED_GND~I_combout $end
$var wire 1 I sixteen[0]~input_o $end
$var wire 1 J sixteen[1]~input_o $end
$var wire 1 K sixteen[2]~input_o $end
$var wire 1 L sixteen[3]~input_o $end
$var wire 1 M sixteen[4]~input_o $end
$var wire 1 N sixteen[5]~input_o $end
$var wire 1 O sixteen[6]~input_o $end
$var wire 1 P sixteen[7]~input_o $end
$var wire 1 Q sixteen[8]~input_o $end
$var wire 1 R sixteen[9]~input_o $end
$var wire 1 S sixteen[10]~input_o $end
$var wire 1 T sixteen[11]~input_o $end
$var wire 1 U sixteen[12]~input_o $end
$var wire 1 V sixteen[13]~input_o $end
$var wire 1 W sixteen[14]~input_o $end
$var wire 1 X sixteen[15]~input_o $end
$upscope $end
$upscope $end
$enddefinitions $end
#0
$dumpvars
b0 !
0A
0@
0?
0>
0=
0<
0;
0:
09
08
07
06
05
04
03
02
01
00
0/
0.
0-
0,
0+
0*
0)
0(
0'
0&
0%
0$
0#
0"
0B
1C
xD
1E
1F
1G
0H
0I
0J
0K
0L
0M
0N
0O
0P
0Q
0R
0S
0T
0U
0V
0W
0X
$end
#5120000
b10000 !
b10001 !
1I
1M
1=
1A
#15360000
b1 !
b0 !
0I
0M
0=
0A
#17920000
b1000000000000000 !
b1010000000000000 !
b1010100000000000 !
b1010101000000000 !
b1010101000100000 !
b1010101000100010 !
b1010101000100011 !
1I
1J
1N
1R
1T
1V
1X
12
11
10
1/
1.
1-
1,
1+
1*
1)
1(
1'
1&
1%
1$
1#
1"
14
16
18
1<
1@
1A
#25600000
b10101000100011 !
b101000100011 !
b1000100011 !
b100011 !
b11 !
b1 !
b0 !
0I
0J
0N
0R
0T
0V
0X
02
01
00
0/
0.
0-
0,
0+
0*
0)
0(
0'
0&
0%
0$
0#
0"
04
06
08
0<
0@
0A
#30720000
b1000000000000 !
b11000000000000 !
b11001000000000 !
b11001000000001 !
1I
1R
1U
1V
14
15
18
1A
#38400000
b111001000000001 !
b111011000000001 !
b111011100000001 !
b111011110000001 !
b111011111000001 !
b111011111001001 !
b111011111001101 !
b111011111011101 !
b1111011111011101 !
b1111111111011101 !
b1111111111111101 !
b1111111111111111 !
b1111111111111110 !
0I
1J
1K
1L
1M
1N
1O
1P
1Q
1S
1T
1W
1X
12
11
10
1/
1.
1-
1,
1+
1*
1)
1(
1'
1&
1%
1$
1#
1"
13
16
17
19
1:
1;
1<
1=
1>
1?
1@
0A
#46080000
b1110111111111110 !
b1100111111111110 !
b1100110111111110 !
b1000110111111110 !
b1000100111111110 !
b1000100011111110 !
b1000100001111110 !
b1000100000111110 !
b1000100000110110 !
b1000100000110010 !
b1000100000100010 !
b1000000000100010 !
b1000000000000010 !
b1000000000000000 !
b1000000000000001 !
1I
0J
0K
0L
0M
0N
0O
0P
0Q
0R
0S
0T
0U
0V
0W
03
04
05
06
07
08
09
0:
0;
0<
0=
0>
0?
0@
1A
#53760000
b1 !
b100000000000001 !
b100000100000001 !
b100000110000001 !
b100000111000001 !
b100000111001001 !
b100000111001101 !
b100000111011101 !
b100000111111101 !
b100000111111100 !
0I
1K
1L
1M
1N
1O
1P
1Q
1W
0X
02
01
00
0/
0.
0-
0,
0+
0*
0)
0(
0'
0&
0%
0$
0#
0"
13
19
1:
1;
1<
1=
1>
1?
0A
#61440000
b100000111111110 !
b111111110 !
b11111110 !
b10111110 !
b10110110 !
b10110010 !
b10100010 !
b10000010 !
1J
0K
0L
0M
0N
0O
0Q
0W
03
09
0;
0<
0=
0>
0?
1@
#69120000
b1010000010 !
b11010000010 !
b111010000010 !
b1000111010000010 !
b1000111010000000 !
b1000111110000000 !
b1000111111000000 !
b1000111111001000 !
b1000111111001100 !
b1000111111101100 !
0J
1K
1L
1N
1O
1Q
1R
1S
1T
1X
12
11
10
1/
1.
1-
1,
1+
1*
1)
1(
1'
1&
1%
1$
1#
1"
16
17
18
19
1;
1<
1>
1?
0@
#76800000
b1001111111101100 !
b1011111111101100 !
b1011111101101100 !
b1011111101111100 !
b11111101111100 !
b11111001111100 !
b11111000111100 !
b11111000110100 !
b11111000110000 !
0K
0L
1M
0O
0P
0Q
1U
1V
0X
02
01
00
0/
0.
0-
0,
0+
0*
0)
0(
0'
0&
0%
0$
0#
0"
14
15
09
0:
0;
1=
0>
0?
#84480000
b11111000110001 !
b111111000110001 !
b111011000110001 !
b111011000110011 !
b111011100110011 !
b111011101110011 !
b111011101110111 !
1I
1J
1K
1O
1Q
0T
1W
13
06
19
1;
1?
1@
1A
#92160000
b111011111110111 !
b1111011111110111 !
b1111011111111111 !
b1111111111111111 !
1L
1P
1T
1X
12
11
10
1/
1.
1-
1,
1+
1*
1)
1(
1'
1&
1%
1$
1#
1"
16
1:
1>
#99840000
b1111110111111111 !
b1111100111111111 !
b1111100111011111 !
b1110100111011111 !
b1100100111011111 !
b1100100111001111 !
b1100100111001110 !
b1000100111001110 !
b1000100111001100 !
b1000100011001100 !
b1000100010001100 !
b1000100010001000 !
b1000100000001000 !
b100000001000 !
b100000000000 !
b0 !
0I
0J
0K
0L
0M
0N
0O
0P
0Q
0R
0S
0T
0U
0V
0W
0X
02
01
00
0/
0.
0-
0,
0+
0*
0)
0(
0'
0&
0%
0$
0#
0"
03
04
05
06
07
08
09
0:
0;
0<
0=
0>
0?
0@
0A
